{
  "project_info": {
    "project_number": "835219293495",
    "firebase_url": "https://fredrika-fe1d2.firebaseio.com",
    "project_id": "fredrika-fe1d2",
    "storage_bucket": "fredrika-fe1d2.appspot.com"
  },
  "client": [
    {
      "client_info": {
        "mobilesdk_app_id": "1:835219293495:android:a913b096897a14bf",
        "android_client_info": {
          "package_name": "org.fredrika.hesa.android"
        }
      },
      "oauth_client": [
        {
          "client_id": "835219293495-50q2vohedej49p4vlrc83sgie6bfppr0.apps.googleusercontent.com",
          "client_type": 3
        }
      ],
      "api_key": [
        {
          "current_key": "AIzaSyCVuQyO83JI6LUZOc5kQQ-mHpZURO56KcM"
        }
      ],
      "services": {
        "analytics_service": {
          "status": 1
        },
        "appinvite_service": {
          "status": 1,
          "other_platform_oauth_client": []
        },
        "ads_service": {
          "status": 2
        }
      }
    }
  ],
  "configuration_version": "1"
}